Flight Number,Airline,Weekdays,Departure From,Arrival At,Departure Time,Arrival Time,Terminal,No Of Stops
P47139,,Wednesday,MUM,PUNE,7:00:00,8:10:00,,0
P47121,,Monday,MUM,PUNE,8:30:00,9:40:00,,0
P47123,,Monday,MUM,PUNE,10:10:00,11:20:00,,0
P47127,,Monday,MUM,PUNE,12:00:00,13:10:00,,0
