Flight Number,Airline,Weekdays,Departure From,Arrival At,Departure Time,Arrival Time,Terminal,No Of Stops
123456,Air Peace,Monday,JFK,LHR,19:20:00,06:20:00,T3,0
123456,Air Peace,Tuesday,MUM,PUNE,12:20:00,20:20:00,T4,1
123456,Air Peace,Wednesday,NGP,GND,10:20:00,02:20:00,T5,2
123456,Air Peace,Thursday,RCH,CND,08:20:00,06:20:00,T6,3
123456,Air Peace,Friday,MNP,GCH,15:20:00,03:20:00,T7,2
123456,Air Peace,Saturday,RIP,NGP,18:20:00,05:20:00,T8,0
123456,Air Peace,Monday,XYZ,ABC,13:20:00,07:20:00,T1,3
123456,Air Peace,Tuesday,QWE,ZAQ,5:20:00,14:20:00,T4,3
