Flight Number,Airline,Weekdays,Departure From,Arrival At,Departure Time,Arrival Time,Terminal,No Of Stops
P1111,Air Peace,Friday,MUM,PUNE,8:30:00,9:40:00,,0
P47123,Air Peace,Friday,MUM,PUNE,10:10:00,11:20:00,,0
P47127,Air Peace,Friday,MUM,PUNE,12:00:00,13:10:00,,0
