Flight Number,Airline,Weekdays,Departure From,Arrival At,Schedule,Terminal,Fs Code,Status,Airport Status,,,,
859878,Air Peace,Wednesday,DEL,PUNE,7:20:00,7,PNQ,Scheduled,Arrival,,,,
787478,Air Peace,Wednesday,DEL,PUNE,8:20:01,9,PNQ,Scheduled,Arrival,,,,
232323,Air Peace,Friday,DEL,PUNE,10:20:01,9,JAL,Scheduled,Arrival,,,,
747474,Air Peace,Sunday,DEL,PUNE,11:20:01,9,PNQ,Scheduled,Arrival,,,,
,,,,,,,,,,,,,
,,,,,,,,,,,,,
,,,,,,,,,,,,,
,,,,,,,,,,,,,
,,,,,,,,,,,,,
,,,,,,,,,,,,,
,,,,,,,,,,,,,
,,,,,,,,,,,,,
,,,,,,,,,,,,,
,,,,,,,,,,,,,
,,,,,,,,,,,,,
,,,,,,,,,,,,,
,,,,,,,,,,,,,
,,,,,,,,,,,,,
,,,,,,,,,,,,,
,,,,,,,,,,,,,
,,,,,,,,,,,,,
,,,,,,,,,,,,,
,,,,,,,,,,,,,
,,,,,,,,,,,,,
,,,,,,,,,,,,,s
