Flight Number,Airline,Weekdays,Departure From,Arrival At,Schedule,Terminal,Fs Code,Status,Airport Status,,,,
859878,Air Peace,Wednesday,PNQ,DEL,7:20:00,7,VIDP,Scheduled,Arrival,,,,
787478,Air Peace,Thursday,PNQ,DEL,8:20:01,9,VAPO,Scheduled,Arrival,,,,
787478,Air Peace,Friday,DEL,PNQ,8:20:01,9,VIDP,Scheduled,Arrival,,,,
859878,Air Peace,Saturday,DEL,PNQ,8:20:01,9,VAPO,Scheduled,Arrival,,,,
,,,,,,,,,,,,,
,,,,,,,,,,,,,
,,,,,,,,,,,,,
,,,,,,,,,,,,,
,,,,,,,,,,,,,
,,,,,,,,,,,,,
,,,,,,,,,,,,,
,,,,,,,,,,,,,
,,,,,,,,,,,,,
,,,,,,,,,,,,,
,,,,,,,,,,,,,
,,,,,,,,,,,,,
,,,,,,,,,,,,,
,,,,,,,,,,,,,
,,,,,,,,,,,,,
,,,,,,,,,,,,,
,,,,,,,,,,,,,
,,,,,,,,,,,,,
,,,,,,,,,,,,,
,,,,,,,,,,,,,
,,,,,,,,,,,,,s
