Flight Number,Airline,Weekdays,Departure From,Arrival At,Schedule,Terminal,Fs Code,Status,Airport Status
123456,Air Peace,Monday,JFK,LHR,19:20:00,1,KAD,Scheduled,Departure
989598,Air Peace,Tuesday,MUM,PUNE,12:20:00,7,DUT,Scheduled,Arrival
365214,Air Peace,Wednesday,NGP,GND,10:20:00,2,DUT,Landed,Departure
145787,Air Peace,Thursday,RCH,CND,08:20:00,2,JAL,Cancel,Departure
201020,Air Peace,Friday,MNP,GCH,15:20:00,10,KAD,Scheduled,Departure
365625,Air Peace,Saturday,RIP,NGP,18:20:00,3,DUT,Scheduled,Departure
478987,Air Peace,Monday,XYZ,ABC,13:20:00,1,KAD,Cancel,Arrival
445511,Air Peace,Tuesday,QWE,ZAQ,5:20:00,2,JAL,Landed,Departure
440010,Air Peace,Wednesday,ASD,SDD,6:10:00,5,KAD,Landed,Arrival
414782,Air Peace,Thursday,ZXC,QAZ,7:20:00,8,JAL,Scheduled,Departure
478596,Air Peace,Friday,GFH,LKJ,11:20:00,1,JAL,Cancelled,Departure
456321,Air Peace,Saturday,VBN,MNB,8:10:00,4,DUT,Landed,Arrival
789685,Air Peace,Monday,AZQ,POL,9:05:00,2,KAD,Cancelled,Departure
