Flight Number,Airline,Weekdays,Departure From,Arrival At,Schedule,Terminal,Fs Code,Status,Airport Status,,,,
859878,Air Peace,Wednesday,MUM,PUNE,7:20:00,7,DUT,Scheduled,Arrival,,,,
787478,Air Peace,Wednesday,MUM,PUNE,8:20:01,9,DUT,Scheduled,Arrival,,,,
232323,Air Peace,Friday,MUM,PUNE,10:20:01,9,DUT,Scheduled,Arrival,,,,
747474,Air Peace,Sunday,MUM,PUNE,11:20:01,9,DUT,Scheduled,Arrival,,,,
,,,,,,,,,,,,,
,,,,,,,,,,,,,
,,,,,,,,,,,,,
,,,,,,,,,,,,,
,,,,,,,,,,,,,
,,,,,,,,,,,,,
,,,,,,,,,,,,,
,,,,,,,,,,,,,
,,,,,,,,,,,,,
,,,,,,,,,,,,,
,,,,,,,,,,,,,
,,,,,,,,,,,,,
,,,,,,,,,,,,,
,,,,,,,,,,,,,
,,,,,,,,,,,,,
,,,,,,,,,,,,,
,,,,,,,,,,,,,
,,,,,,,,,,,,,
,,,,,,,,,,,,,
,,,,,,,,,,,,,
,,,,,,,,,,,,,s
